{
    "app_categories": {
        "Connectivity": "Pripojiteľnosť",
        "Development": "Vývoj",
        "Games": "Hry",
        "Graphics": "Grafika",
        "Internet": "Internet",
        "Money": "Financie",
        "Multimedia": "Multimédiá",
        "Navigation": "Navigácia",
        "Phone & SMS": "Telefón a SMS",
        "Reading": "Čítanie",
        "Science & Education": "Veda a výuka",
        "Security": "Bezpečnosť",
        "Sports & Health": "Šport & Zdravie",
        "System": "Systém",
        "Theming": "Témy",
        "Time": "Čas",
        "Writing": "Písanie",
        "show_all_packages": "Dostupných %d aplikácií"
    }
}
